^C:\USERS\WOLFS\ONEDRIVE\DOCUMENTS\TP4_PROG\TP4\TP4\BOISSON.CPP|C:\USERS\WOLFS\ONEDRIVE\DOCUMENTS\TP4_PROG\TP4\TP4\CLIENT.CPP|C:\USERS\WOLFS\ONEDRIVE\DOCUMENTS\TP4_PROG\TP4\TP4\CLIENTOCCASIONNEL.CPP|C:\USERS\WOLFS\ONEDRIVE\DOCUMENTS\TP4_PROG\TP4\TP4\CLIENTPRESTIGE.CPP|C:\USERS\WOLFS\ONEDRIVE\DOCUMENTS\TP4_PROG\TP4\TP4\CLIENTREGULIER.CPP|C:\USERS\WOLFS\ONEDRIVE\DOCUMENTS\TP4_PROG\TP4\TP4\MAIN.CPP|C:\USERS\WOLFS\ONEDRIVE\DOCUMENTS\TP4_PROG\TP4\TP4\MENU.CPP|C:\USERS\WOLFS\ONEDRIVE\DOCUMENTS\TP4_PROG\TP4\TP4\PLAT.CPP|C:\USERS\WOLFS\ONEDRIVE\DOCUMENTS\TP4_PROG\TP4\TP4\PLATVEGE.CPP|C:\USERS\WOLFS\ONEDRIVE\DOCUMENTS\TP4_PROG\TP4\TP4\RESTAURANT.CPP|C:\USERS\WOLFS\ONEDRIVE\DOCUMENTS\TP4_PROG\TP4\TP4\TABLE.CPP
C:\USERS\WOLFS\ONEDRIVE\DOCUMENTS\TP4_PROG\TP4\TP4\DEBUG\VC141.PDB
C:\USERS\WOLFS\ONEDRIVE\DOCUMENTS\TP4_PROG\TP4\TP4\DEBUG\VC141.IDB
C:\USERS\WOLFS\ONEDRIVE\DOCUMENTS\TP4_PROG\TP4\TP4\DEBUG\TABLE.OBJ
C:\USERS\WOLFS\ONEDRIVE\DOCUMENTS\TP4_PROG\TP4\TP4\DEBUG\RESTAURANT.OBJ
C:\USERS\WOLFS\ONEDRIVE\DOCUMENTS\TP4_PROG\TP4\TP4\DEBUG\PLAT.OBJ
C:\USERS\WOLFS\ONEDRIVE\DOCUMENTS\TP4_PROG\TP4\TP4\DEBUG\MENU.OBJ
C:\USERS\WOLFS\ONEDRIVE\DOCUMENTS\TP4_PROG\TP4\TP4\DEBUG\MAIN.OBJ
C:\USERS\WOLFS\ONEDRIVE\DOCUMENTS\TP4_PROG\TP4\TP4\DEBUG\CLIENTREGULIER.OBJ
C:\USERS\WOLFS\ONEDRIVE\DOCUMENTS\TP4_PROG\TP4\TP4\DEBUG\CLIENTPRESTIGE.OBJ
C:\USERS\WOLFS\ONEDRIVE\DOCUMENTS\TP4_PROG\TP4\TP4\DEBUG\CLIENTOCCASIONNEL.OBJ
C:\USERS\WOLFS\ONEDRIVE\DOCUMENTS\TP4_PROG\TP4\TP4\DEBUG\BOISSON.OBJ
^C:\USERS\WOLFS\ONEDRIVE\DOCUMENTS\TP4_PROG\TP4\TP4\CLIENT.CPP|C:\USERS\WOLFS\ONEDRIVE\DOCUMENTS\TP4_PROG\TP4\TP4\CLIENTOCCASIONNEL.CPP|C:\USERS\WOLFS\ONEDRIVE\DOCUMENTS\TP4_PROG\TP4\TP4\CLIENTPRESTIGE.CPP|C:\USERS\WOLFS\ONEDRIVE\DOCUMENTS\TP4_PROG\TP4\TP4\CLIENTREGULIER.CPP|C:\USERS\WOLFS\ONEDRIVE\DOCUMENTS\TP4_PROG\TP4\TP4\MAIN.CPP|C:\USERS\WOLFS\ONEDRIVE\DOCUMENTS\TP4_PROG\TP4\TP4\PLATVEGE.CPP|C:\USERS\WOLFS\ONEDRIVE\DOCUMENTS\TP4_PROG\TP4\TP4\RESTAURANT.CPP|C:\USERS\WOLFS\ONEDRIVE\DOCUMENTS\TP4_PROG\TP4\TP4\TABLE.CPP
C:\USERS\WOLFS\ONEDRIVE\DOCUMENTS\TP4_PROG\TP4\TP4\DEBUG\VC141.PDB
C:\USERS\WOLFS\ONEDRIVE\DOCUMENTS\TP4_PROG\TP4\TP4\DEBUG\VC141.IDB
C:\USERS\WOLFS\ONEDRIVE\DOCUMENTS\TP4_PROG\TP4\TP4\DEBUG\TABLE.OBJ
C:\USERS\WOLFS\ONEDRIVE\DOCUMENTS\TP4_PROG\TP4\TP4\DEBUG\RESTAURANT.OBJ
C:\USERS\WOLFS\ONEDRIVE\DOCUMENTS\TP4_PROG\TP4\TP4\DEBUG\PLATVEGE.OBJ
C:\USERS\WOLFS\ONEDRIVE\DOCUMENTS\TP4_PROG\TP4\TP4\DEBUG\MAIN.OBJ
C:\USERS\WOLFS\ONEDRIVE\DOCUMENTS\TP4_PROG\TP4\TP4\DEBUG\CLIENTREGULIER.OBJ
C:\USERS\WOLFS\ONEDRIVE\DOCUMENTS\TP4_PROG\TP4\TP4\DEBUG\CLIENTPRESTIGE.OBJ
C:\USERS\WOLFS\ONEDRIVE\DOCUMENTS\TP4_PROG\TP4\TP4\DEBUG\CLIENTOCCASIONNEL.OBJ
C:\USERS\WOLFS\ONEDRIVE\DOCUMENTS\TP4_PROG\TP4\TP4\DEBUG\CLIENT.OBJ
^C:\USERS\WOLFS\ONEDRIVE\DOCUMENTS\TP4_PROG\TP4\TP4\CLIENTPRESTIGE.CPP|C:\USERS\WOLFS\ONEDRIVE\DOCUMENTS\TP4_PROG\TP4\TP4\CLIENTREGULIER.CPP|C:\USERS\WOLFS\ONEDRIVE\DOCUMENTS\TP4_PROG\TP4\TP4\MENU.CPP
C:\USERS\WOLFS\ONEDRIVE\DOCUMENTS\TP4_PROG\TP4\TP4\DEBUG\VC141.PDB
C:\USERS\WOLFS\ONEDRIVE\DOCUMENTS\TP4_PROG\TP4\TP4\DEBUG\VC141.IDB
C:\USERS\WOLFS\ONEDRIVE\DOCUMENTS\TP4_PROG\TP4\TP4\DEBUG\MENU.OBJ
C:\USERS\WOLFS\ONEDRIVE\DOCUMENTS\TP4_PROG\TP4\TP4\DEBUG\CLIENTREGULIER.OBJ
C:\USERS\WOLFS\ONEDRIVE\DOCUMENTS\TP4_PROG\TP4\TP4\DEBUG\CLIENTPRESTIGE.OBJ
^C:\USERS\WOLFS\ONEDRIVE\DOCUMENTS\TP4_PROG\TP4\TP4\CLIENTPRESTIGE.CPP|C:\USERS\WOLFS\ONEDRIVE\DOCUMENTS\TP4_PROG\TP4\TP4\CLIENTREGULIER.CPP
C:\USERS\WOLFS\ONEDRIVE\DOCUMENTS\TP4_PROG\TP4\TP4\DEBUG\VC141.PDB
C:\USERS\WOLFS\ONEDRIVE\DOCUMENTS\TP4_PROG\TP4\TP4\DEBUG\VC141.IDB
C:\USERS\WOLFS\ONEDRIVE\DOCUMENTS\TP4_PROG\TP4\TP4\DEBUG\CLIENTREGULIER.OBJ
C:\USERS\WOLFS\ONEDRIVE\DOCUMENTS\TP4_PROG\TP4\TP4\DEBUG\CLIENTPRESTIGE.OBJ
^C:\USERS\WOLFS\ONEDRIVE\DOCUMENTS\TP4_PROG\TP4\TP4\BOISSON.CPP|C:\USERS\WOLFS\ONEDRIVE\DOCUMENTS\TP4_PROG\TP4\TP4\CLIENT.CPP|C:\USERS\WOLFS\ONEDRIVE\DOCUMENTS\TP4_PROG\TP4\TP4\CLIENTOCCASIONNEL.CPP|C:\USERS\WOLFS\ONEDRIVE\DOCUMENTS\TP4_PROG\TP4\TP4\CLIENTPRESTIGE.CPP|C:\USERS\WOLFS\ONEDRIVE\DOCUMENTS\TP4_PROG\TP4\TP4\CLIENTREGULIER.CPP|C:\USERS\WOLFS\ONEDRIVE\DOCUMENTS\TP4_PROG\TP4\TP4\LECTUREFICHIERENSECTIONS.CPP|C:\USERS\WOLFS\ONEDRIVE\DOCUMENTS\TP4_PROG\TP4\TP4\MAIN.CPP|C:\USERS\WOLFS\ONEDRIVE\DOCUMENTS\TP4_PROG\TP4\TP4\MENU.CPP|C:\USERS\WOLFS\ONEDRIVE\DOCUMENTS\TP4_PROG\TP4\TP4\PLAT.CPP|C:\USERS\WOLFS\ONEDRIVE\DOCUMENTS\TP4_PROG\TP4\TP4\PLATBIO.CPP|C:\USERS\WOLFS\ONEDRIVE\DOCUMENTS\TP4_PROG\TP4\TP4\PLATBIOVEGE.CPP|C:\USERS\WOLFS\ONEDRIVE\DOCUMENTS\TP4_PROG\TP4\TP4\PLATVEGE.CPP|C:\USERS\WOLFS\ONEDRIVE\DOCUMENTS\TP4_PROG\TP4\TP4\RESTAURANT.CPP|C:\USERS\WOLFS\ONEDRIVE\DOCUMENTS\TP4_PROG\TP4\TP4\TABLE.CPP|C:\USERS\WOLFS\ONEDRIVE\DOCUMENTS\TP4_PROG\TP4\TP4\VEGE.CPP
C:\USERS\WOLFS\ONEDRIVE\DOCUMENTS\TP4_PROG\TP4\TP4\DEBUG\VC141.PDB
C:\USERS\WOLFS\ONEDRIVE\DOCUMENTS\TP4_PROG\TP4\TP4\DEBUG\VC141.IDB
C:\USERS\WOLFS\ONEDRIVE\DOCUMENTS\TP4_PROG\TP4\TP4\DEBUG\MAIN.OBJ
C:\USERS\WOLFS\ONEDRIVE\DOCUMENTS\TP4_PROG\TP4\TP4\DEBUG\VEGE.OBJ
C:\USERS\WOLFS\ONEDRIVE\DOCUMENTS\TP4_PROG\TP4\TP4\DEBUG\RESTAURANT.OBJ
C:\USERS\WOLFS\ONEDRIVE\DOCUMENTS\TP4_PROG\TP4\TP4\DEBUG\PLATVEGE.OBJ
C:\USERS\WOLFS\ONEDRIVE\DOCUMENTS\TP4_PROG\TP4\TP4\DEBUG\PLATBIOVEGE.OBJ
C:\USERS\WOLFS\ONEDRIVE\DOCUMENTS\TP4_PROG\TP4\TP4\DEBUG\PLATBIO.OBJ
C:\USERS\WOLFS\ONEDRIVE\DOCUMENTS\TP4_PROG\TP4\TP4\DEBUG\PLAT.OBJ
C:\USERS\WOLFS\ONEDRIVE\DOCUMENTS\TP4_PROG\TP4\TP4\DEBUG\MENU.OBJ
C:\USERS\WOLFS\ONEDRIVE\DOCUMENTS\TP4_PROG\TP4\TP4\DEBUG\LECTUREFICHIERENSECTIONS.OBJ
C:\USERS\WOLFS\ONEDRIVE\DOCUMENTS\TP4_PROG\TP4\TP4\DEBUG\CLIENTPRESTIGE.OBJ
C:\USERS\WOLFS\ONEDRIVE\DOCUMENTS\TP4_PROG\TP4\TP4\DEBUG\BOISSON.OBJ
^C:\USERS\WOLFS\ONEDRIVE\DOCUMENTS\TP4_PROG\TP4\TP4\BOISSON.CPP
C:\USERS\WOLFS\ONEDRIVE\DOCUMENTS\TP4_PROG\TP4\TP4\DEBUG\BOISSON.OBJ
^C:\USERS\WOLFS\ONEDRIVE\DOCUMENTS\TP4_PROG\TP4\TP4\LECTUREFICHIERENSECTIONS.CPP
C:\USERS\WOLFS\ONEDRIVE\DOCUMENTS\TP4_PROG\TP4\TP4\DEBUG\LECTUREFICHIERENSECTIONS.OBJ
^C:\USERS\WOLFS\ONEDRIVE\DOCUMENTS\TP4_PROG\TP4\TP4\PLATBIO.CPP
C:\USERS\WOLFS\ONEDRIVE\DOCUMENTS\TP4_PROG\TP4\TP4\DEBUG\PLATBIO.OBJ
^C:\USERS\WOLFS\ONEDRIVE\DOCUMENTS\TP4_PROG\TP4\TP4\CLIENTPRESTIGE.CPP|C:\USERS\WOLFS\ONEDRIVE\DOCUMENTS\TP4_PROG\TP4\TP4\CLIENTREGULIER.CPP|C:\USERS\WOLFS\ONEDRIVE\DOCUMENTS\TP4_PROG\TP4\TP4\MAIN.CPP|C:\USERS\WOLFS\ONEDRIVE\DOCUMENTS\TP4_PROG\TP4\TP4\RESTAURANT.CPP
C:\USERS\WOLFS\ONEDRIVE\DOCUMENTS\TP4_PROG\TP4\TP4\DEBUG\VC141.PDB
C:\USERS\WOLFS\ONEDRIVE\DOCUMENTS\TP4_PROG\TP4\TP4\DEBUG\VC141.IDB
C:\USERS\WOLFS\ONEDRIVE\DOCUMENTS\TP4_PROG\TP4\TP4\DEBUG\RESTAURANT.OBJ
C:\USERS\WOLFS\ONEDRIVE\DOCUMENTS\TP4_PROG\TP4\TP4\DEBUG\MAIN.OBJ
C:\USERS\WOLFS\ONEDRIVE\DOCUMENTS\TP4_PROG\TP4\TP4\DEBUG\CLIENTREGULIER.OBJ
C:\USERS\WOLFS\ONEDRIVE\DOCUMENTS\TP4_PROG\TP4\TP4\DEBUG\CLIENTPRESTIGE.OBJ
^C:\USERS\WOLFS\ONEDRIVE\DOCUMENTS\TP4_PROG\TP4\TP4\CLIENT.CPP|C:\USERS\WOLFS\ONEDRIVE\DOCUMENTS\TP4_PROG\TP4\TP4\CLIENTOCCASIONNEL.CPP|C:\USERS\WOLFS\ONEDRIVE\DOCUMENTS\TP4_PROG\TP4\TP4\CLIENTPRESTIGE.CPP|C:\USERS\WOLFS\ONEDRIVE\DOCUMENTS\TP4_PROG\TP4\TP4\CLIENTREGULIER.CPP|C:\USERS\WOLFS\ONEDRIVE\DOCUMENTS\TP4_PROG\TP4\TP4\MAIN.CPP|C:\USERS\WOLFS\ONEDRIVE\DOCUMENTS\TP4_PROG\TP4\TP4\MENU.CPP|C:\USERS\WOLFS\ONEDRIVE\DOCUMENTS\TP4_PROG\TP4\TP4\PLAT.CPP|C:\USERS\WOLFS\ONEDRIVE\DOCUMENTS\TP4_PROG\TP4\TP4\PLATBIOVEGE.CPP|C:\USERS\WOLFS\ONEDRIVE\DOCUMENTS\TP4_PROG\TP4\TP4\PLATVEGE.CPP|C:\USERS\WOLFS\ONEDRIVE\DOCUMENTS\TP4_PROG\TP4\TP4\RESTAURANT.CPP|C:\USERS\WOLFS\ONEDRIVE\DOCUMENTS\TP4_PROG\TP4\TP4\TABLE.CPP|C:\USERS\WOLFS\ONEDRIVE\DOCUMENTS\TP4_PROG\TP4\TP4\VEGE.CPP
C:\USERS\WOLFS\ONEDRIVE\DOCUMENTS\TP4_PROG\TP4\TP4\DEBUG\VC141.PDB
C:\USERS\WOLFS\ONEDRIVE\DOCUMENTS\TP4_PROG\TP4\TP4\DEBUG\VC141.IDB
C:\USERS\WOLFS\ONEDRIVE\DOCUMENTS\TP4_PROG\TP4\TP4\DEBUG\MAIN.OBJ
C:\USERS\WOLFS\ONEDRIVE\DOCUMENTS\TP4_PROG\TP4\TP4\DEBUG\VEGE.OBJ
C:\USERS\WOLFS\ONEDRIVE\DOCUMENTS\TP4_PROG\TP4\TP4\DEBUG\TABLE.OBJ
C:\USERS\WOLFS\ONEDRIVE\DOCUMENTS\TP4_PROG\TP4\TP4\DEBUG\RESTAURANT.OBJ
C:\USERS\WOLFS\ONEDRIVE\DOCUMENTS\TP4_PROG\TP4\TP4\DEBUG\PLATVEGE.OBJ
C:\USERS\WOLFS\ONEDRIVE\DOCUMENTS\TP4_PROG\TP4\TP4\DEBUG\PLATBIOVEGE.OBJ
C:\USERS\WOLFS\ONEDRIVE\DOCUMENTS\TP4_PROG\TP4\TP4\DEBUG\PLAT.OBJ
C:\USERS\WOLFS\ONEDRIVE\DOCUMENTS\TP4_PROG\TP4\TP4\DEBUG\MENU.OBJ
C:\USERS\WOLFS\ONEDRIVE\DOCUMENTS\TP4_PROG\TP4\TP4\DEBUG\CLIENTREGULIER.OBJ
C:\USERS\WOLFS\ONEDRIVE\DOCUMENTS\TP4_PROG\TP4\TP4\DEBUG\CLIENTPRESTIGE.OBJ
C:\USERS\WOLFS\ONEDRIVE\DOCUMENTS\TP4_PROG\TP4\TP4\DEBUG\CLIENTOCCASIONNEL.OBJ
C:\USERS\WOLFS\ONEDRIVE\DOCUMENTS\TP4_PROG\TP4\TP4\DEBUG\CLIENT.OBJ
^C:\USERS\WOLFS\ONEDRIVE\DOCUMENTS\TP4_PROG\TP4\TP4\PLAT.CPP
C:\USERS\WOLFS\ONEDRIVE\DOCUMENTS\TP4_PROG\TP4\TP4\DEBUG\VC141.PDB
^C:\USERS\WOLFS\ONEDRIVE\DOCUMENTS\TP4_PROG\TP4\TP4\PLATBIOVEGE.CPP
C:\USERS\WOLFS\ONEDRIVE\DOCUMENTS\TP4_PROG\TP4\TP4\DEBUG\VC141.PDB
^C:\USERS\WOLFS\ONEDRIVE\DOCUMENTS\TP4_PROG\TP4\TP4\VEGE.CPP
C:\USERS\WOLFS\ONEDRIVE\DOCUMENTS\TP4_PROG\TP4\TP4\DEBUG\VC141.PDB
^C:\USERS\WOLFS\ONEDRIVE\DOCUMENTS\TP4_PROG\TP4\TP4\MENU.CPP
C:\USERS\WOLFS\ONEDRIVE\DOCUMENTS\TP4_PROG\TP4\TP4\DEBUG\VC141.PDB
C:\USERS\WOLFS\ONEDRIVE\DOCUMENTS\TP4_PROG\TP4\TP4\DEBUG\VC141.IDB
C:\USERS\WOLFS\ONEDRIVE\DOCUMENTS\TP4_PROG\TP4\TP4\DEBUG\MENU.OBJ
^C:\USERS\WOLFS\ONEDRIVE\DOCUMENTS\TP4_PROG\TP4\TP4\CLIENT.CPP|C:\USERS\WOLFS\ONEDRIVE\DOCUMENTS\TP4_PROG\TP4\TP4\CLIENTOCCASIONNEL.CPP|C:\USERS\WOLFS\ONEDRIVE\DOCUMENTS\TP4_PROG\TP4\TP4\CLIENTPRESTIGE.CPP|C:\USERS\WOLFS\ONEDRIVE\DOCUMENTS\TP4_PROG\TP4\TP4\CLIENTREGULIER.CPP|C:\USERS\WOLFS\ONEDRIVE\DOCUMENTS\TP4_PROG\TP4\TP4\MAIN.CPP|C:\USERS\WOLFS\ONEDRIVE\DOCUMENTS\TP4_PROG\TP4\TP4\RESTAURANT.CPP|C:\USERS\WOLFS\ONEDRIVE\DOCUMENTS\TP4_PROG\TP4\TP4\TABLE.CPP
C:\USERS\WOLFS\ONEDRIVE\DOCUMENTS\TP4_PROG\TP4\TP4\DEBUG\VC141.PDB
C:\USERS\WOLFS\ONEDRIVE\DOCUMENTS\TP4_PROG\TP4\TP4\DEBUG\VC141.IDB
C:\USERS\WOLFS\ONEDRIVE\DOCUMENTS\TP4_PROG\TP4\TP4\DEBUG\MAIN.OBJ
C:\USERS\WOLFS\ONEDRIVE\DOCUMENTS\TP4_PROG\TP4\TP4\DEBUG\TABLE.OBJ
C:\USERS\WOLFS\ONEDRIVE\DOCUMENTS\TP4_PROG\TP4\TP4\DEBUG\RESTAURANT.OBJ
C:\USERS\WOLFS\ONEDRIVE\DOCUMENTS\TP4_PROG\TP4\TP4\DEBUG\CLIENTREGULIER.OBJ
C:\USERS\WOLFS\ONEDRIVE\DOCUMENTS\TP4_PROG\TP4\TP4\DEBUG\CLIENTPRESTIGE.OBJ
C:\USERS\WOLFS\ONEDRIVE\DOCUMENTS\TP4_PROG\TP4\TP4\DEBUG\CLIENTOCCASIONNEL.OBJ
C:\USERS\WOLFS\ONEDRIVE\DOCUMENTS\TP4_PROG\TP4\TP4\DEBUG\CLIENT.OBJ
^C:\USERS\WOLFS\ONEDRIVE\DOCUMENTS\TP4_PROG\TP4\TP4\CLIENT.CPP
C:\USERS\WOLFS\ONEDRIVE\DOCUMENTS\TP4_PROG\TP4\TP4\DEBUG\VC141.PDB
^C:\USERS\WOLFS\ONEDRIVE\DOCUMENTS\TP4_PROG\TP4\TP4\CLIENTOCCASIONNEL.CPP
C:\USERS\WOLFS\ONEDRIVE\DOCUMENTS\TP4_PROG\TP4\TP4\DEBUG\VC141.PDB
^C:\USERS\WOLFS\ONEDRIVE\DOCUMENTS\TP4_PROG\TP4\TP4\CLIENTPRESTIGE.CPP
C:\USERS\WOLFS\ONEDRIVE\DOCUMENTS\TP4_PROG\TP4\TP4\DEBUG\VC141.PDB
^C:\USERS\WOLFS\ONEDRIVE\DOCUMENTS\TP4_PROG\TP4\TP4\CLIENTREGULIER.CPP
C:\USERS\WOLFS\ONEDRIVE\DOCUMENTS\TP4_PROG\TP4\TP4\DEBUG\VC141.PDB
^C:\USERS\WOLFS\ONEDRIVE\DOCUMENTS\TP4_PROG\TP4\TP4\RESTAURANT.CPP
C:\USERS\WOLFS\ONEDRIVE\DOCUMENTS\TP4_PROG\TP4\TP4\DEBUG\VC141.PDB
^C:\USERS\WOLFS\ONEDRIVE\DOCUMENTS\TP4_PROG\TP4\TP4\TABLE.CPP
C:\USERS\WOLFS\ONEDRIVE\DOCUMENTS\TP4_PROG\TP4\TP4\DEBUG\VC141.PDB
^C:\USERS\WOLFS\ONEDRIVE\DOCUMENTS\TP4_PROG\TP4\TP4\MAIN.CPP
C:\USERS\WOLFS\ONEDRIVE\DOCUMENTS\TP4_PROG\TP4\TP4\DEBUG\VC141.PDB
C:\USERS\WOLFS\ONEDRIVE\DOCUMENTS\TP4_PROG\TP4\TP4\DEBUG\VC141.IDB
C:\USERS\WOLFS\ONEDRIVE\DOCUMENTS\TP4_PROG\TP4\TP4\DEBUG\MAIN.OBJ
^C:\USERS\WOLFS\ONEDRIVE\DOCUMENTS\TP4_PROG\TP4\TP4\PLATVEGE.CPP
C:\USERS\WOLFS\ONEDRIVE\DOCUMENTS\TP4_PROG\TP4\TP4\DEBUG\VC141.PDB
C:\USERS\WOLFS\ONEDRIVE\DOCUMENTS\TP4_PROG\TP4\TP4\DEBUG\VC141.IDB
C:\USERS\WOLFS\ONEDRIVE\DOCUMENTS\TP4_PROG\TP4\TP4\DEBUG\PLATVEGE.OBJ
